{
    "key": "group_620d388a97e08",
    "title": "Uspar",
    "fields": [
        {
            "key": "field_620d38f3efa91",
            "label": "Uspar",
            "name": "usps",
            "type": "group",
            "instructions": "Grupp för uspar",
            "required": 0,
            "conditional_logic": 0,
            "wrapper": {
                "width": "",
                "class": "",
                "id": ""
            },
            "layout": "block",
            "sub_fields": [
                {
                    "key": "field_620cfa6598106",
                    "label": "Uspar",
                    "name": "usps",
                    "type": "repeater",
                    "instructions": "Lägg till uspar",
                    "required": 0,
                    "conditional_logic": 0,
                    "wrapper": {
                        "width": "",
                        "class": "",
                        "id": ""
                    },
                    "collapsed": "",
                    "min": 0,
                    "max": 0,
                    "layout": "block",
                    "button_label": "",
                    "sub_fields": [
                        {
                            "key": "field_620cfa7798107",
                            "label": "Rubrik",
                            "name": "heading",
                            "type": "textarea",
                            "instructions": "Lägg till rubrik",
                            "required": 0,
                            "conditional_logic": 0,
                            "wrapper": {
                                "width": "",
                                "class": "",
                                "id": ""
                            },
                            "default_value": "",
                            "placeholder": "",
                            "maxlength": "",
                            "rows": 1,
                            "new_lines": ""
                        },
                        {
                            "key": "field_620cfa9198108",
                            "label": "Text",
                            "name": "text",
                            "type": "wysiwyg",
                            "instructions": "Lägg till text",
                            "required": 0,
                            "conditional_logic": 0,
                            "wrapper": {
                                "width": "",
                                "class": "",
                                "id": ""
                            },
                            "default_value": "",
                            "tabs": "all",
                            "toolbar": "full",
                            "media_upload": 1,
                            "delay": 0
                        },
                        {
                            "key": "field_620cfaa098109",
                            "label": "Knappar",
                            "name": "buttons",
                            "type": "clone",
                            "instructions": "",
                            "required": 0,
                            "conditional_logic": 0,
                            "wrapper": {
                                "width": "",
                                "class": "",
                                "id": ""
                            },
                            "clone": [
                                "group_620b7a3fe1f84"
                            ],
                            "display": "seamless",
                            "layout": "block",
                            "prefix_label": 0,
                            "prefix_name": 0
                        }
                    ]
                }
            ]
        }
    ],
    "location": [
        [
            {
                "param": "widget",
                "operator": "==",
                "value": "all"
            }
        ]
    ],
    "menu_order": 0,
    "position": "normal",
    "style": "default",
    "label_placement": "top",
    "instruction_placement": "label",
    "hide_on_screen": "",
    "active": true,
    "description": "",
    "show_in_rest": 0,
    "modified": 1648131207
}