{
    "key": "group_621e2b18b4c6e",
    "title": "Kolumner med lista",
    "fields": [
        {
            "key": "field_621e2b1ed96e1",
            "label": "Kolumner med lista",
            "name": "columns_list",
            "type": "group",
            "instructions": "Grupp för kolumner med lista",
            "required": 0,
            "conditional_logic": 0,
            "wrapper": {
                "width": "",
                "class": "",
                "id": ""
            },
            "layout": "block",
            "sub_fields": [
                {
                    "key": "field_621e2b48d96e2",
                    "label": "Kolumner",
                    "name": "columns",
                    "type": "repeater",
                    "instructions": "Lägg in kolumner",
                    "required": 0,
                    "conditional_logic": 0,
                    "wrapper": {
                        "width": "",
                        "class": "",
                        "id": ""
                    },
                    "collapsed": "",
                    "min": 0,
                    "max": 0,
                    "layout": "block",
                    "button_label": "",
                    "sub_fields": [
                        {
                            "key": "field_621e3c8ac1bbd",
                            "label": "Rubrik",
                            "name": "heading",
                            "type": "textarea",
                            "instructions": "Skriv en rubrik",
                            "required": 0,
                            "conditional_logic": 0,
                            "wrapper": {
                                "width": "",
                                "class": "",
                                "id": ""
                            },
                            "default_value": "",
                            "placeholder": "",
                            "maxlength": "",
                            "rows": 1,
                            "new_lines": ""
                        },
                        {
                            "key": "field_621e2b63d96e3",
                            "label": "Lista",
                            "name": "list",
                            "type": "repeater",
                            "instructions": "Lägg in uppgifter i listan",
                            "required": 0,
                            "conditional_logic": 0,
                            "wrapper": {
                                "width": "",
                                "class": "",
                                "id": ""
                            },
                            "collapsed": "",
                            "min": 0,
                            "max": 0,
                            "layout": "table",
                            "button_label": "",
                            "sub_fields": [
                                {
                                    "key": "field_621e2b77d96e4",
                                    "label": "List rubrik",
                                    "name": "list_heading",
                                    "type": "textarea",
                                    "instructions": "List rubrik",
                                    "required": 0,
                                    "conditional_logic": 0,
                                    "wrapper": {
                                        "width": "",
                                        "class": "",
                                        "id": ""
                                    },
                                    "default_value": "",
                                    "placeholder": "",
                                    "maxlength": "",
                                    "rows": "",
                                    "new_lines": ""
                                },
                                {
                                    "key": "field_621e2c03d96e5",
                                    "label": "Mer info",
                                    "name": "more_info",
                                    "type": "textarea",
                                    "instructions": "Lägg in text",
                                    "required": 0,
                                    "conditional_logic": 0,
                                    "wrapper": {
                                        "width": "",
                                        "class": "",
                                        "id": ""
                                    },
                                    "default_value": "",
                                    "placeholder": "",
                                    "maxlength": "",
                                    "rows": 4,
                                    "new_lines": ""
                                }
                            ]
                        }
                    ]
                }
            ]
        }
    ],
    "location": [
        [
            {
                "param": "block",
                "operator": "==",
                "value": "acf\/columns-list"
            }
        ]
    ],
    "menu_order": 0,
    "position": "normal",
    "style": "default",
    "label_placement": "top",
    "instruction_placement": "label",
    "hide_on_screen": "",
    "active": true,
    "description": "",
    "show_in_rest": 0,
    "modified": 1648131183
}