{
    "key": "group_618e7d4add78e",
    "title": "Footer",
    "fields": [
        {
            "key": "field_618e7d4f091d3",
            "label": "Kontaktuppgifter",
            "name": "kontaktuppgifter",
            "type": "wysiwyg",
            "instructions": "Lägg till namn och adresser",
            "required": 0,
            "conditional_logic": 0,
            "wrapper": {
                "width": "33",
                "class": "",
                "id": ""
            },
            "default_value": "",
            "tabs": "all",
            "toolbar": "full",
            "media_upload": 1,
            "delay": 0
        },
        {
            "key": "field_61a9e2e997ad9",
            "label": "Kontaktuppgifter 2",
            "name": "kontaktuppgifter_2",
            "type": "wysiwyg",
            "instructions": "Lägg till namn och adresser",
            "required": 0,
            "conditional_logic": 0,
            "wrapper": {
                "width": "33",
                "class": "",
                "id": ""
            },
            "default_value": "",
            "tabs": "all",
            "toolbar": "full",
            "media_upload": 1,
            "delay": 0
        },
        {
            "key": "field_61a9e2e897ad8",
            "label": "Kontaktuppgifter 3",
            "name": "kontaktuppgifter_3",
            "type": "wysiwyg",
            "instructions": "Lägg till namn och adresser",
            "required": 0,
            "conditional_logic": 0,
            "wrapper": {
                "width": "33",
                "class": "",
                "id": ""
            },
            "default_value": "",
            "tabs": "all",
            "toolbar": "full",
            "media_upload": 1,
            "delay": 0
        },
        {
            "key": "field_618e7d71091d4",
            "label": "Social links",
            "name": "social_links",
            "type": "repeater",
            "instructions": "Lägg till länkar till sociala medier",
            "required": 0,
            "conditional_logic": 0,
            "wrapper": {
                "width": "",
                "class": "",
                "id": ""
            },
            "collapsed": "",
            "min": 0,
            "max": 0,
            "layout": "block",
            "button_label": "",
            "sub_fields": [
                {
                    "key": "field_618e7dde091d5",
                    "label": "Ikon",
                    "name": "icon",
                    "type": "image",
                    "instructions": "Lägg till bild",
                    "required": 0,
                    "conditional_logic": 0,
                    "wrapper": {
                        "width": "50",
                        "class": "",
                        "id": ""
                    },
                    "return_format": "url",
                    "preview_size": "medium",
                    "library": "all",
                    "min_width": "",
                    "min_height": "",
                    "min_size": "",
                    "max_width": "",
                    "max_height": "",
                    "max_size": "",
                    "mime_types": ""
                },
                {
                    "key": "field_618e7df1091d6",
                    "label": "Länk",
                    "name": "link",
                    "type": "textarea",
                    "instructions": "Lägg in en länk",
                    "required": 0,
                    "conditional_logic": 0,
                    "wrapper": {
                        "width": "50",
                        "class": "",
                        "id": ""
                    },
                    "default_value": "",
                    "placeholder": "",
                    "maxlength": "",
                    "rows": "",
                    "new_lines": ""
                }
            ]
        }
    ],
    "location": [
        [
            {
                "param": "options_page",
                "operator": "==",
                "value": "acf-options"
            }
        ]
    ],
    "menu_order": 0,
    "position": "normal",
    "style": "default",
    "label_placement": "top",
    "instruction_placement": "label",
    "hide_on_screen": "",
    "active": true,
    "description": "",
    "show_in_rest": 0,
    "modified": 1648131172
}