{
    "key": "group_620d4ac08c654",
    "title": "Uspar med bakgrund",
    "fields": [
        {
            "key": "field_620d4b6aeba89",
            "label": "Uspar med bakgrund",
            "name": "usps_background",
            "type": "group",
            "instructions": "Grupp för uspar med bakgrund",
            "required": 0,
            "conditional_logic": 0,
            "wrapper": {
                "width": "",
                "class": "",
                "id": ""
            },
            "layout": "block",
            "sub_fields": [
                {
                    "key": "field_620d73e64fa50",
                    "label": "Bild",
                    "name": "image",
                    "type": "image",
                    "instructions": "Lägg in en bild",
                    "required": 0,
                    "conditional_logic": 0,
                    "wrapper": {
                        "width": "",
                        "class": "",
                        "id": ""
                    },
                    "return_format": "array",
                    "preview_size": "medium",
                    "library": "all",
                    "min_width": "",
                    "min_height": "",
                    "min_size": "",
                    "max_width": "",
                    "max_height": "",
                    "max_size": "",
                    "mime_types": ""
                },
                {
                    "key": "field_620d4c21eba8a",
                    "label": "Förtext",
                    "name": "pre_heading",
                    "type": "textarea",
                    "instructions": "Skriv en för-rubrik",
                    "required": 0,
                    "conditional_logic": 0,
                    "wrapper": {
                        "width": "",
                        "class": "",
                        "id": ""
                    },
                    "default_value": "",
                    "placeholder": "",
                    "maxlength": "",
                    "rows": 1,
                    "new_lines": ""
                },
                {
                    "key": "field_620d4c45eba8b",
                    "label": "Rubrik",
                    "name": "heading",
                    "type": "textarea",
                    "instructions": "Skriv en rubrik",
                    "required": 0,
                    "conditional_logic": 0,
                    "wrapper": {
                        "width": "",
                        "class": "",
                        "id": ""
                    },
                    "default_value": "",
                    "placeholder": "",
                    "maxlength": "",
                    "rows": 1,
                    "new_lines": ""
                },
                {
                    "key": "field_620d4c51eba8c",
                    "label": "Uspar",
                    "name": "usps",
                    "type": "clone",
                    "instructions": "",
                    "required": 0,
                    "conditional_logic": 0,
                    "wrapper": {
                        "width": "",
                        "class": "",
                        "id": ""
                    },
                    "clone": [
                        "group_620d388a97e08"
                    ],
                    "display": "seamless",
                    "layout": "block",
                    "prefix_label": 0,
                    "prefix_name": 0
                }
            ]
        }
    ],
    "location": [
        [
            {
                "param": "block",
                "operator": "==",
                "value": "acf\/background-usps"
            }
        ]
    ],
    "menu_order": 0,
    "position": "normal",
    "style": "default",
    "label_placement": "top",
    "instruction_placement": "label",
    "hide_on_screen": "",
    "active": true,
    "description": "",
    "show_in_rest": 0,
    "modified": 1648131153
}