<?xml version="1.0" standalone="no"?>
<!DOCTYPE svg PUBLIC "-//W3C//DTD SVG 20010904//EN"
 "http://www.w3.org/TR/2001/REC-SVG-20010904/DTD/svg10.dtd">
<svg version="1.0" xmlns="http://www.w3.org/2000/svg"
 width="260.000000pt" height="260.000000pt" viewBox="0 0 260.000000 260.000000"
 preserveAspectRatio="xMidYMid meet">
<metadata>
Created by potrace 1.14, written by Peter Selinger 2001-2017
</metadata>
<g transform="translate(0.000000,260.000000) scale(0.100000,-0.100000)"
fill="#000000" stroke="none">
<path d="M226 2135 c-17 -5 -40 -25 -53 -43 -21 -32 -22 -43 -22 -213 l1 -179
54 0 c63 0 56 -23 56 192 0 93 4 138 12 140 20 7 2081 3 2091 -4 11 -6 13
-1447 3 -1464 -5 -7 -2011 -12 -2094 -5 -8 1 -11 44 -12 134 0 72 0 141 -1
152 -1 21 -1 21 -93 16 -14 -1 -16 -19 -16 -163 -1 -174 6 -203 53 -234 22
-14 128 -16 1104 -16 593 0 1090 3 1103 7 29 10 57 41 65 74 4 14 7 366 7 782
l0 756 -22 31 c-13 18 -35 34 -55 38 -50 12 -2145 11 -2181 -1z"/>
<path d="M152 1280 l-2 -210 43 -1 c184 -3 225 4 277 48 118 101 89 298 -52
358 -26 10 -71 15 -151 15 l-114 0 -1 -210z m239 93 c65 -39 59 -161 -11 -195
-19 -10 -54 -18 -77 -18 -47 0 -45 -5 -45 100 0 17 1 55 1 85 l1 56 50 -5 c28
-3 64 -13 81 -23z"/>
<path d="M1306 1380 c-15 -5 -37 -17 -47 -26 -18 -16 -19 -16 -19 4 0 22 -3
22 -164 22 -187 0 -214 -4 -248 -33 -47 -41 -61 -101 -38 -162 8 -21 6 -32
-10 -54 -18 -26 -20 -67 -4 -93 3 -5 0 -16 -7 -24 -30 -37 -6 -108 44 -129 83
-34 231 -26 275 16 27 25 38 64 26 97 -14 41 -60 61 -154 68 -87 6 -113 15
-104 39 4 9 14 11 32 6 61 -17 134 2 172 46 27 30 31 42 28 77 -3 22 -6 48 -9
56 -3 10 5 14 31 14 l35 0 3 -116 c3 -129 3 -129 75 -119 l27 3 0 94 c0 81 3
97 21 115 14 14 27 18 42 14 35 -11 46 -34 46 -94 -2 -135 -4 -128 41 -133 23
-2 44 -1 48 2 5 3 8 47 9 98 0 97 6 113 49 126 11 3 29 0 39 -8 17 -12 20 -28
21 -112 1 -55 2 -101 3 -104 0 -3 23 -3 49 -2 l49 4 -2 117 c-1 67 -7 126 -14
139 -30 56 -126 74 -180 34 -28 -20 -61 -21 -61 -2 0 8 -21 16 -60 25 -8 2
-28 -1 -44 -5z m-327 -99 c23 -23 20 -69 -6 -88 -40 -30 -103 -1 -103 47 0 53
71 79 109 41z m39 -305 c26 -25 -23 -41 -119 -37 -33 1 -64 24 -57 43 5 12 21
14 85 10 43 -2 84 -10 91 -16z"/>
<path d="M609 1378 c-1 -2 -2 -72 -3 -156 l-1 -153 49 3 50 3 1 150 0 150 -47
3 c-27 2 -49 2 -49 0z"/>
<path d="M1739 1378 c-1 -2 -2 -70 -2 -153 l-2 -150 30 -5 c72 -13 70 -16 70
156 l0 154 -47 0 c-27 0 -48 -1 -49 -2z"/>
</g>
</svg>
